id,name,model_id:id,group_id:id,perm_read,perm_write,perm_create,perm_unlink
access_pt_variable_line,access_pt_variable_line,model_pt_variable_line,base.group_user,1,1,1,1
access_material_line,access_material_line,model_material_line,base.group_user,1,1,1,1
access_service_line,access_service_line,model_service_line,base.group_user,1,1,1,1
access_pa_equipment_line,access_pa_equipment_line,model_pa_equipment_line,base.group_user,1,1,1,1
access_labour_line,access_labour_line,model_labour_line,base.group_user,1,1,1,1
access_overhead_line,access_overhead_line,model_overhead_line,base.group_user,1,1,1,1
access_wizard_purchase_agreement,access_wizard_purchase_agreement,model_wizard_purchase_agreement,,1,1,1,1
