id,name,model_id:id,group_id:id,perm_read,perm_write,perm_create,perm_unlink
access_tsp_top_selling_product_model_public,access.tsp.top.selling.product.model.public,model_sh_tsp_top_selling_product,base.group_user,1,1,1,1
access_top_selling_products_xls,access_top_selling_products_xls,model_sh_top_selling_products,base.group_user,1,1,1,1
access_sh_tsp_top_selling_product_wizard,access_sh_tsp_top_selling_product_wizard,model_sh_tsp_top_selling_product_wizard,base.group_user,1,1,1,1
