id,name,model_id:id,group_id:id,perm_read,perm_write,perm_create,perm_unlink
access_hr_appraisal_analysis,hr.appraisal.analysis,model_hr_appraisal_analysis,,1,1,1,1
access_hr_appraisals_approval_matrix,hr.appraisals.approval.matrix,model_hr_appraisals_approval_matrix,,1,1,1,1
access_hr_appraisals_approval_matrix_line,hr.appraisals.approval.matrix.line,model_hr_appraisals_approval_matrix_line,,1,1,1,1
access_appraisal_approver_user,appraisal.approver.user,model_appraisal_approver_user,,1,1,1,1
access_hr_appraisal_wizard,hr.appraisal.wizard,model_hr_appraisal_wizard,,1,1,1,1
