id,name,model_id:id,group_id:id,perm_read,perm_write,perm_create,perm_unlink
access_saleblanket_saleblanket,saleblanket.saleblanket,model_saleblanket_saleblanket,,1,1,1,1
access_orderline_orderline,orderline.orderline,model_orderline_orderline,,1,1,1,1
access_blanketwiz_blanketwiz,blanketwiz.blanketwiz,model_blanketwiz_blanketwiz,,1,1,1,1
access_orderwizline_orderwizline,orderwizline.orderwizline,model_orderwizline_orderwizline,,1,1,1,1