id,name,model_id:id,group_id:id,perm_read,perm_write,perm_create,perm_unlink
access_hr_tax_kpp,hr_tax_kpp,model_hr_tax_kpp,,1,1,1,1
access_hr_tax_ptkp,hr_tax_ptkp,model_hr_tax_ptkp,,1,1,1,1
access_hr_tax_bracket,access_hr_tax_bracket,model_hr_tax_bracket,,1,1,1,1
access_hr_tax_ptkp_harian_lepas,hr.tax.ptkp.harian.lepas,model_hr_tax_ptkp_harian_lepas,,1,1,1,1
access_country_domicile_code,country.domicile.code,model_country_domicile_code,,1,1,1,1
access_hr_ptkp_change_status,hr.ptkp.change.status,model_hr_ptkp_change_status,,1,1,1,1
