id,name,model_id:id,group_id:id,perm_read,perm_write,perm_create,perm_unlink
access_sh_sale_analysis_wizard,access_sh_sale_analysis_wizard,model_sh_sale_analysis_wizard,base.group_user,1,1,1,1
access_sh_sale_analysis_xls,access_sh_sale_analysis_xls,model_sh_sale_analysis_xls,base.group_user,1,1,1,1
