id,name,model_id:id,group_id:id,perm_read,perm_create,perm_write,perm_unlink
access_acrux_chat_connector,access_acrux_chat_connector,model_acrux_chat_connector,acrux_chat.group_chat_basic,1,1,1,1
access_acrux_chat_conversation_read,access_acrux_chat_conversation_read,model_acrux_chat_conversation,base.group_user,1,0,0,0
access_acrux_chat_conversation,access_acrux_chat_conversation,model_acrux_chat_conversation,acrux_chat.group_chat_basic,1,1,1,1
access_acrux_chat_message_read,access_acrux_chat_message_read,model_acrux_chat_message,base.group_user,1,0,0,0
access_acrux_chat_message,access_acrux_chat_message,model_acrux_chat_message,acrux_chat.group_chat_basic,1,1,1,1
access_acrux_chat_default_answer,access_acrux_chat_default_answer,model_acrux_chat_default_answer,acrux_chat.group_chat_basic,1,1,1,1
access_acrux_chat_pop_message,access_acrux_chat_pop_message,model_acrux_chat_pop_message,base.group_user,1,1,1,1
