<svg width="319" height="679" viewBox="0 0 319 679" fill="none" xmlns="http://www.w3.org/2000/svg">
<line x1="158.5" y1="660.833" x2="158.5" y2="270.5" stroke="#BDB5B5" stroke-width="35" stroke-linecap="round"/>
<circle cx="159.5" cy="159.967" r="159.5" fill="#D82F20"/>
</svg>
